8 Derrick Baruga – Dynamic Group 2
…
Dataset structure

dataset

# A tibble: 31 × 31
   ...1  `TOTAL U.S. GDP` For-hire transportation servi…¹ Air transportation..…²
   <chr>            <dbl>                           <dbl>                  <dbl>
 1 1980             2788.                            103.                   13.1
 2 1985             4218.                            137.                   19.3
 3 1990             5800.                            173.                   31.3
 4 1995             7415.                            232.                   46.2
 5 1996             7838.                            241.                   46.9
 6 1997             8578.                            257.                   54.7
 7 1998             9063.                            280.                   55.2
 8 1999             9631.                            290.                   57.7
 9 2000            10251.                            308.                   58.1
10 2001            10582.                            308.                   49.2
# ℹ 21 more rows
# ℹ abbreviated names: ¹​`For-hire transportation services GDP, total`,
#   ²​`Air transportation...4`
# ℹ 27 more variables: `Rail transportation...5` <dbl>,
#   `Water transportation...6` <dbl>, `Truck transportation...7` <dbl>,
#   `Transit and ground passenger transportation...8` <dbl>,
#   `Pipeline transportation...9` <dbl>, …
…
