5 Toluwanimi Olufawo – Dynamic Group 2
…
Identifying missing values in a more detailed way

missing_vals <- dataset %>%
  summarise(across(everything(), ~ sum(is.na(.)))) %>%
  pivot_longer(everything(), names_to = "column", values_to = "missing_count")

print(missing_vals)  # Check where missing data exists

# A tibble: 32 × 2
   column                                                          missing_count
   <chr>                                                                   <int>
 1 table_3_1_u_s_gross_domestic_product_gdp_attributed_to_for_hir…             3
 2 x2                                                                          9
 3 x3                                                                          9
 4 x4                                                                          9
 5 x5                                                                          9
 6 x6                                                                          9
 7 x7                                                                          9
 8 x8                                                                          9
 9 x9                                                                          9
10 x10                                                                         9
# ℹ 22 more rows
…
